Chapter 3 Data | Equity Market Research
…
##  [1] "2017-07-17" "2017-08-11" "2017-09-18" "2017-10-09" "2017-11-03"
##  [6] "2017-11-23" "2018-01-01" "2018-01-02" "2018-01-03" "2018-01-08"
## [11] "2018-02-12" "2018-03-21" "2018-04-30" "2018-05-03" "2018-05-04"
## [16] "2018-09-17" "2018-09-24" "2018-10-08" "2018-11-23" "2018-12-24"
## [21] "2018-12-31"

By observing the dates when the value is missing, we observed no exact patterns.
Hence, we dropped all the missing rows instead of performing further imputation.

For the second part, similar procedures are performed:

##   symbol     date     open     high      low    close   volume adjusted 
##        0        0      152      152      152      152      152      152

## # A tibble: 152 × 8
##    symbol    date        open  high   low close volume adjusted
##    <chr>     <date>     <dbl> <dbl> <dbl> <dbl>  <dbl>    <dbl>
##  1 ^SP500-45 2019-07-01    NA    NA    NA    NA     NA       NA
##  2 ^SP500-45 2019-07-02    NA    NA    NA    NA     NA       NA
##  3 ^SP500-45 2019-07-03    NA    NA    NA    NA     NA       NA
##  4 ^SP500-35 2019-07-01    NA    NA    NA    NA     NA       NA
##  5 ^SP500-35 2019-07-02    NA    NA    NA    NA     NA       NA
##  6 ^SP500-35 2019-07-03    NA    NA    NA    NA     NA       NA
##  7 ^SP500-40 2019-07-01    NA    NA    NA    NA     NA       NA
##  8 ^SP500-40 2019-07-02    NA    NA    NA    NA     NA       NA
##  9 ^SP500-40 2019-07-03    NA    NA    NA    NA     NA       NA
## 10 ^SP500-25 2019-07-01    NA    NA    NA    NA     NA       NA
## # … with 142 more rows
…
